8.29.210.222 - - [20/May/2017:00:10:58 +0100] "GET /robots.txt HTTP/1.1" 200 23 ua-uk.com "-" "Mozilla/5.0 (Windows NT 10.0; Win64; x64; rv:48.0) Gecko/20100101 Firefox/48.0" "-"
8.29.210.222 - - [20/May/2017:00:10:58 +0100] "GET /xmlrpc.php?rsd HTTP/1.1" 404 23696 ua-uk.com "-" "Mozilla/5.0 (Windows NT 10.0; Win64; x64; rv:48.0) Gecko/20100101 Firefox/48.0" "-"
8.29.210.222 - - [20/May/2017:00:10:58 +0100] "GET / HTTP/1.1" 200 33782 ua-uk.com "-" "Mozilla/5.0 (Windows NT 10.0; Win64; x64; rv:48.0) Gecko/20100101 Firefox/48.0" "-"
8.29.210.222 - - [20/May/2017:00:10:58 +0100] "GET /blog/robots.txt HTTP/1.1" 404 23681 ua-uk.com "-" "Mozilla/5.0 (Windows NT 10.0; Win64; x64; rv:48.0) Gecko/20100101 Firefox/48.0" "-"
8.29.210.222 - - [20/May/2017:00:10:58 +0100] "GET /blog/ HTTP/1.1" 404 23681 ua-uk.com "-" "Mozilla/5.0 (Windows NT 10.0; Win64; x64; rv:48.0) Gecko/20100101 Firefox/48.0" "-"
8.29.210.222 - - [20/May/2017:00:10:58 +0100] "GET /wordpress/ HTTP/1.1" 404 23681 ua-uk.com "-" "Mozilla/5.0 (Windows NT 10.0; Win64; x64; rv:48.0) Gecko/20100101 Firefox/48.0" "-"
8.29.210.222 - - [20/May/2017:00:10:59 +0100] "GET /wp/ HTTP/1.1" 404 23681 ua-uk.com "-" "Mozilla/5.0 (Windows NT 10.0; Win64; x64; rv:48.0) Gecko/20100101 Firefox/48.0" "-"
176.36.211.4 - - [20/May/2017:02:59:34 +0100] "GET / HTTP/1.1" 200 33792 ua-uk.com "-" "Mozilla/5.0 (Windows NT 6.3; Win64; x64) AppleWebKit/537.36 (KHTML, like Gecko) Chrome/58.0.3029.110 Safari/537.36" "-"
176.36.211.4 - - [20/May/2017:02:59:34 +0100] "GET /assets/4113284c/css/bootstrap.css HTTP/1.1" 200 146082 ua-uk.com "http://ua-uk.com/" "Mozilla/5.0 (Windows NT 6.3; Win64; x64) AppleWebKit/537.36 (KHTML, like Gecko) Chrome/58.0.3029.110 Safari/537.36" "-"
176.36.211.4 - - [20/May/2017:02:59:34 +0100] "GET /css/site1.css HTTP/1.1" 200 9954 ua-uk.com "http://ua-uk.com/" "Mozilla/5.0 (Windows NT 6.3; Win64; x64) AppleWebKit/537.36 (KHTML, like Gecko) Chrome/58.0.3029.110 Safari/537.36" "-"
176.36.211.4 - - [20/May/2017:02:59:34 +0100] "GET /assets/7bff5bf0/stylesheets/flags-large.min.css HTTP/1.1" 200 6141 ua-uk.com "http://ua-uk.com/" "Mozilla/5.0 (Windows NT 6.3; Win64; x64) AppleWebKit/537.36 (KHTML, like Gecko) Chrome/58.0.3029.110 Safari/537.36" "-"
176.36.211.4 - - [20/May/2017:02:59:34 +0100] "GET /assets/7bff5bf0/stylesheets/language-picker.min.css HTTP/1.1" 200 967 ua-uk.com "http://ua-uk.com/" "Mozilla/5.0 (Windows NT 6.3; Win64; x64) AppleWebKit/537.36 (KHTML, like Gecko) Chrome/58.0.3029.110 Safari/537.36" "-"
176.36.211.4 - - [20/May/2017:02:59:34 +0100] "GET /assets/6aaedba5/jquery.js HTTP/1.1" 200 284394 ua-uk.com "http://ua-uk.com/" "Mozilla/5.0 (Windows NT 6.3; Win64; x64) AppleWebKit/537.36 (KHTML, like Gecko) Chrome/58.0.3029.110 Safari/537.36" "-"
176.36.211.4 - - [20/May/2017:02:59:34 +0100] "GET /assets/2f7fc523/yii.js HTTP/1.1" 200 15841 ua-uk.com "http://ua-uk.com/" "Mozilla/5.0 (Windows NT 6.3; Win64; x64) AppleWebKit/537.36 (KHTML, like Gecko) Chrome/58.0.3029.110 Safari/537.36" "-"
176.36.211.4 - - [20/May/2017:02:59:34 +0100] "GET /js/bootstrap.js HTTP/1.1" 200 66732 ua-uk.com "http://ua-uk.com/" "Mozilla/5.0 (Windows NT 6.3; Win64; x64) AppleWebKit/537.36 (KHTML, like Gecko) Chrome/58.0.3029.110 Safari/537.36" "-"
176.36.211.4 - - [20/May/2017:02:59:35 +0100] "GET /assets/7bff5bf0/javascripts/language-picker.min.js HTTP/1.1" 200 1264 ua-uk.com "http://ua-uk.com/" "Mozilla/5.0 (Windows NT 6.3; Win64; x64) AppleWebKit/537.36 (KHTML, like Gecko) Chrome/58.0.3029.110 Safari/537.36" "-"
176.36.211.4 - - [20/May/2017:02:59:35 +0100] "GET /image/ukr.png HTTP/1.1" 200 382 ua-uk.com "http://ua-uk.com/" "Mozilla/5.0 (Windows NT 6.3; Win64; x64) AppleWebKit/537.36 (KHTML, like Gecko) Chrome/58.0.3029.110 Safari/537.36" "-"
176.36.211.4 - - [20/May/2017:02:59:35 +0100] "GET /image/UA.png HTTP/1.1" 200 4628 ua-uk.com "http://ua-uk.com/" "Mozilla/5.0 (Windows NT 6.3; Win64; x64) AppleWebKit/537.36 (KHTML, like Gecko) Chrome/58.0.3029.110 Safari/537.36" "-"
176.36.211.4 - - [20/May/2017:02:59:35 +0100] "GET /image/ukr1.jpg HTTP/1.1" 200 93471 ua-uk.com "http://ua-uk.com/" "Mozilla/5.0 (Windows NT 6.3; Win64; x64) AppleWebKit/537.36 (KHTML, like Gecko) Chrome/58.0.3029.110 Safari/537.36" "-"
176.36.211.4 - - [20/May/2017:02:59:35 +0100] "GET /image/banner-eng.jpg HTTP/1.1" 200 111826 ua-uk.com "http://ua-uk.com/" "Mozilla/5.0 (Windows NT 6.3; Win64; x64) AppleWebKit/537.36 (KHTML, like Gecko) Chrome/58.0.3029.110 Safari/537.36" "-"
176.36.211.4 - - [20/May/2017:02:59:35 +0100] "GET /image/eng.png HTTP/1.1" 200 1189 ua-uk.com "http://ua-uk.com/" "Mozilla/5.0 (Windows NT 6.3; Win64; x64) AppleWebKit/537.36 (KHTML, like Gecko) Chrome/58.0.3029.110 Safari/537.36" "-"
176.36.211.4 - - [20/May/2017:02:59:35 +0100] "GET /image/mob_banner.jpg HTTP/1.1" 200 132575 ua-uk.com "http://ua-uk.com/" "Mozilla/5.0 (Windows NT 6.3; Win64; x64) AppleWebKit/537.36 (KHTML, like Gecko) Chrome/58.0.3029.110 Safari/537.36" "-"
176.36.211.4 - - [20/May/2017:02:59:35 +0100] "GET /image/mapUK.png HTTP/1.1" 200 8015 ua-uk.com "http://ua-uk.com/" "Mozilla/5.0 (Windows NT 6.3; Win64; x64) AppleWebKit/537.36 (KHTML, like Gecko) Chrome/58.0.3029.110 Safari/537.36" "-"
176.36.211.4 - - [20/May/2017:02:59:35 +0100] "GET /assets/4113284c/fonts/glyphicons-halflings-regular.woff2 HTTP/1.1" 200 18028 ua-uk.com "http://ua-uk.com/assets/4113284c/css/bootstrap.css" "Mozilla/5.0 (Windows NT 6.3; Win64; x64) AppleWebKit/537.36 (KHTML, like Gecko) Chrome/58.0.3029.110 Safari/537.36" "-"
176.36.211.4 - - [20/May/2017:02:59:35 +0100] "GET /image/buttonUp.png HTTP/1.1" 200 747 ua-uk.com "http://ua-uk.com/" "Mozilla/5.0 (Windows NT 6.3; Win64; x64) AppleWebKit/537.36 (KHTML, like Gecko) Chrome/58.0.3029.110 Safari/537.36" "-"
176.36.211.4 - - [20/May/2017:02:59:35 +0100] "GET /image/buttonDown.png HTTP/1.1" 200 723 ua-uk.com "http://ua-uk.com/" "Mozilla/5.0 (Windows NT 6.3; Win64; x64) AppleWebKit/537.36 (KHTML, like Gecko) Chrome/58.0.3029.110 Safari/537.36" "-"
176.36.211.4 - - [20/May/2017:02:59:35 +0100] "GET /image/carMan.png HTTP/1.1" 200 30187 ua-uk.com "http://ua-uk.com/" "Mozilla/5.0 (Windows NT 6.3; Win64; x64) AppleWebKit/537.36 (KHTML, like Gecko) Chrome/58.0.3029.110 Safari/537.36" "-"
176.36.211.4 - - [20/May/2017:02:59:35 +0100] "GET /image/mapUA.png HTTP/1.1" 200 8234 ua-uk.com "http://ua-uk.com/" "Mozilla/5.0 (Windows NT 6.3; Win64; x64) AppleWebKit/537.36 (KHTML, like Gecko) Chrome/58.0.3029.110 Safari/537.36" "-"
176.36.211.4 - - [20/May/2017:02:59:35 +0100] "GET /image/rightOrder.png HTTP/1.1" 200 2185 ua-uk.com "http://ua-uk.com/" "Mozilla/5.0 (Windows NT 6.3; Win64; x64) AppleWebKit/537.36 (KHTML, like Gecko) Chrome/58.0.3029.110 Safari/537.36" "-"
176.36.211.4 - - [20/May/2017:02:59:35 +0100] "GET /image/one.png HTTP/1.1" 200 9655 ua-uk.com "http://ua-uk.com/" "Mozilla/5.0 (Windows NT 6.3; Win64; x64) AppleWebKit/537.36 (KHTML, like Gecko) Chrome/58.0.3029.110 Safari/537.36" "-"
176.36.211.4 - - [20/May/2017:02:59:35 +0100] "GET /image/two.png HTTP/1.1" 200 12111 ua-uk.com "http://ua-uk.com/" "Mozilla/5.0 (Windows NT 6.3; Win64; x64) AppleWebKit/537.36 (KHTML, like Gecko) Chrome/58.0.3029.110 Safari/537.36" "-"
176.36.211.4 - - [20/May/2017:02:59:35 +0100] "GET /image/three.png HTTP/1.1" 200 13580 ua-uk.com "http://ua-uk.com/" "Mozilla/5.0 (Windows NT 6.3; Win64; x64) AppleWebKit/537.36 (KHTML, like Gecko) Chrome/58.0.3029.110 Safari/537.36" "-"
176.36.211.4 - - [20/May/2017:02:59:35 +0100] "GET /image/HDIW%20.png HTTP/1.1" 200 52074 ua-uk.com "http://ua-uk.com/" "Mozilla/5.0 (Windows NT 6.3; Win64; x64) AppleWebKit/537.36 (KHTML, like Gecko) Chrome/58.0.3029.110 Safari/537.36" "-"
176.36.211.4 - - [20/May/2017:02:59:36 +0100] "GET /image/read1.png HTTP/1.1" 200 27261 ua-uk.com "http://ua-uk.com/" "Mozilla/5.0 (Windows NT 6.3; Win64; x64) AppleWebKit/537.36 (KHTML, like Gecko) Chrome/58.0.3029.110 Safari/537.36" "-"
176.36.211.4 - - [20/May/2017:02:59:36 +0100] "GET /image/read2.png HTTP/1.1" 200 27542 ua-uk.com "http://ua-uk.com/" "Mozilla/5.0 (Windows NT 6.3; Win64; x64) AppleWebKit/537.36 (KHTML, like Gecko) Chrome/58.0.3029.110 Safari/537.36" "-"
176.36.211.4 - - [20/May/2017:02:59:36 +0100] "GET /image/read3.png HTTP/1.1" 200 27100 ua-uk.com "http://ua-uk.com/" "Mozilla/5.0 (Windows NT 6.3; Win64; x64) AppleWebKit/537.36 (KHTML, like Gecko) Chrome/58.0.3029.110 Safari/537.36" "-"
176.36.211.4 - - [20/May/2017:02:59:36 +0100] "GET /image/vk.png HTTP/1.1" 200 607 ua-uk.com "http://ua-uk.com/" "Mozilla/5.0 (Windows NT 6.3; Win64; x64) AppleWebKit/537.36 (KHTML, like Gecko) Chrome/58.0.3029.110 Safari/537.36" "-"
176.36.211.4 - - [20/May/2017:02:59:36 +0100] "GET /image/face.png HTTP/1.1" 200 528 ua-uk.com "http://ua-uk.com/" "Mozilla/5.0 (Windows NT 6.3; Win64; x64) AppleWebKit/537.36 (KHTML, like Gecko) Chrome/58.0.3029.110 Safari/537.36" "-"
176.36.211.4 - - [20/May/2017:02:59:36 +0100] "GET /assets/7bff5bf0/images/flags-large.png HTTP/1.1" 200 26254 ua-uk.com "http://ua-uk.com/assets/7bff5bf0/stylesheets/flags-large.min.css" "Mozilla/5.0 (Windows NT 6.3; Win64; x64) AppleWebKit/537.36 (KHTML, like Gecko) Chrome/58.0.3029.110 Safari/537.36" "-"
176.36.211.4 - - [20/May/2017:02:59:36 +0100] "GET /image/fon.png HTTP/1.1" 200 4448 ua-uk.com "http://ua-uk.com/css/site1.css" "Mozilla/5.0 (Windows NT 6.3; Win64; x64) AppleWebKit/537.36 (KHTML, like Gecko) Chrome/58.0.3029.110 Safari/537.36" "-"
176.36.211.4 - - [20/May/2017:02:59:36 +0100] "GET /image/whyWe.png HTTP/1.1" 200 3361 ua-uk.com "http://ua-uk.com/css/site1.css" "Mozilla/5.0 (Windows NT 6.3; Win64; x64) AppleWebKit/537.36 (KHTML, like Gecko) Chrome/58.0.3029.110 Safari/537.36" "-"
176.36.211.4 - - [20/May/2017:02:59:36 +0100] "GET /image/howMuch.png HTTP/1.1" 200 4387 ua-uk.com "http://ua-uk.com/css/site1.css" "Mozilla/5.0 (Windows NT 6.3; Win64; x64) AppleWebKit/537.36 (KHTML, like Gecko) Chrome/58.0.3029.110 Safari/537.36" "-"
176.36.211.4 - - [20/May/2017:02:59:36 +0100] "GET /image/uk-ua.png HTTP/1.1" 200 25540 ua-uk.com "http://ua-uk.com/css/site1.css" "Mozilla/5.0 (Windows NT 6.3; Win64; x64) AppleWebKit/537.36 (KHTML, like Gecko) Chrome/58.0.3029.110 Safari/537.36" "-"
176.36.211.4 - - [20/May/2017:02:59:36 +0100] "GET /image/ua-uk.png HTTP/1.1" 200 23554 ua-uk.com "http://ua-uk.com/css/site1.css" "Mozilla/5.0 (Windows NT 6.3; Win64; x64) AppleWebKit/537.36 (KHTML, like Gecko) Chrome/58.0.3029.110 Safari/537.36" "-"
176.36.211.4 - - [20/May/2017:02:59:36 +0100] "GET /image/order.png HTTP/1.1" 200 1487 ua-uk.com "http://ua-uk.com/css/site1.css" "Mozilla/5.0 (Windows NT 6.3; Win64; x64) AppleWebKit/537.36 (KHTML, like Gecko) Chrome/58.0.3029.110 Safari/537.36" "-"
176.36.211.4 - - [20/May/2017:02:59:41 +0100] "GET /favicon.ico HTTP/1.1" 200 318 ua-uk.com "http://ua-uk.com/" "Mozilla/5.0 (Windows NT 6.3; Win64; x64) AppleWebKit/537.36 (KHTML, like Gecko) Chrome/58.0.3029.110 Safari/537.36" "-"
